/* XPM */
static char * filled_xpm[] = {
"32 32 3 1",
" 	c green yellow",
".	c brown",
"X	c lime green",
" ...............................",
"........... ....................",
"......................X.........",
"................................",
".....X............ .............",
"....X...........................",
"................................",
".........X......................",
"............................... ",
"................................",
"................................",
".................X......X.......",
"........................X.......",
"........................X.......",
"..........X.....................",
"... ............................",
"................................",
"................................",
"................................",
"............ ......X............",
"...............................X",
"...X............................",
"................................",
"................................",
"........................... ....",
".............X..................",
"................................",
". ..........X...................",
"...........X....................",
"................................",
"...X..................X.....X...",
"...X............................"};
