#define xonix_mask_width 25
#define xonix_mask_height 25
static unsigned char xonix_mask_bits[] = {
   0x0e, 0x00, 0xe0, 0x00, 0x7f, 0x00, 0xfc, 0x01, 0xff, 0x00, 0xfe, 0x01,
   0xff, 0x01, 0xff, 0x01, 0xff, 0xc7, 0xff, 0x01, 0xff, 0xff, 0xff, 0x01,
   0xf8, 0xff, 0x3f, 0x00, 0xf0, 0xff, 0x1f, 0x00, 0xf0, 0xff, 0x1f, 0x00,
   0xe0, 0xff, 0x0f, 0x00, 0xe0, 0xff, 0x0f, 0x00, 0xe0, 0xff, 0x0f, 0x00,
   0xc0, 0xff, 0x07, 0x00, 0xc0, 0xff, 0x07, 0x00, 0xe0, 0xff, 0x0f, 0x00,
   0xf0, 0xff, 0x1f, 0x00, 0xf8, 0xff, 0x3f, 0x00, 0xfc, 0xff, 0x7f, 0x00,
   0xfe, 0xff, 0xff, 0x00, 0xfe, 0xff, 0xff, 0x00, 0xff, 0xc7, 0xff, 0x01,
   0x3f, 0x00, 0xf8, 0x01, 0x1f, 0x00, 0xf0, 0x01, 0x0f, 0x00, 0xe0, 0x01,
   0x0e, 0x00, 0xe0, 0x00};
